--Request 
POST https://update.googleapis.com/service/update2/json?cup2key=10:3059518785&cup2hreq=24ecf808c6308302588bf807ceea37b542fbc566fef6f0f3edacf6c85197c04c
Host: update.googleapis.com
X-Goog-Update-AppId: obedbbhbpmojnkanicioggnmelmoomoc,aemomkdncapdnfajjbbcbdebjljbpmpj,gcmjkmgdlgnkkcocmoeiminaijmmjnii,giekcmmlnklenlaomppkphknjmnnpneh,cmahhnpholdijhjokonmfdjbfmklppij,ggkkehgbnfjpeggfpleeakpidbkibbmn,khaoiebndkojlmppeemjhbpbandiljpe,ojhpjlocmbogdgmfpkhlaaeamibhnphh,jamhcnnkihinmdlkakkaopbjbbcngflc,llkgjffcdpffmhiakmfcdcblohccpfmo,jflookgnkcckhobaglndicnbbgbonegd,oimompecagnajdejgnnjijobebaeigek,hfnkpimlhhgieaddgfemjhofmfblmnib,pdafiollngonhoadbmdoemagnfpdphbe,eeigpngbgcognadeebkilcpcaedhellh
X-Goog-Update-Interactivity: bg
X-Goog-Update-Updater: chromium-90.0.4430.93
Content-Type: application/json
Sec-Fetch-Site: none
Sec-Fetch-Mode: no-cors
Sec-Fetch-Dest: empty
User-Agent: Mozilla/5.0 (Windows NT 10.0; Win64; x64) AppleWebKit/537.36 (KHTML, like Gecko) Chrome/90.0.4430.93 Safari/537.36
Accept-Encoding: gzip, deflate, br
----
 POSTDATA {"request":{"@os":"win","@updater":"chromium","acceptformat":"crx2,crx3","app":[{"accept_locale":"ENUS","appid":"obedbbhbpmojnkanicioggnmelmoomoc","cohort":"1:s6f:","cohorthint":"Auto","cohortname":"Auto","enabled":true,"packages":{"package":[{"fp":"1.ce90443029e519576f7a3de55fe2a28284ad3fc73d9f63585bf28d8404ac2ae3"}]},"ping":{"ping_freshness":"{7e4c87d0-b325-4398-895d-dca6f9a1ec7e}","rd":5334},"updatecheck":{},"version":"20210717.385693513"},{"appid":"aemomkdncapdnfajjbbcbdebjljbpmpj","cohort":"1::","enabled":true,"ping":{"ping_freshness":"{64f9fd86-0982-4d45-85a4-ce9d983a3990}","rd":5334},"updatecheck":{},"version":"1.0.5.0"},{"appid":"gcmjkmgdlgnkkcocmoeiminaijmmjnii","cohort":"1:bm1:10q3@0.01,10ul@0.1","cohorthint":"M54ToM99","cohortname":"M54ToM99","enabled":true,"packages":{"package":[{"fp":"1.91ee417000553ca22ed67530545c4177a08e7ffcf602c292a71bd89ecd0568a5"}]},"ping":{"ping_freshness":"{3cc65bbd-e605-49ff-9111-12e657e0012e}","rd":5334},"updatecheck":{},"version":"9.28.0"},{"appid":"giekcmmlnklenlaomppkphknjmnnpneh","cohort":"1:j5l:","cohorthint":"Auto","cohortname":"Auto","enabled":true,"packages":{"package":[{"fp":"1.fd515ec0dc30d25a09641b8b83729234bc50f4511e35ce17d24fd996252eaace"}]},"ping":{"ping_freshness":"{e3b0f5d0-4f5a-4c75-8433-69f170f533b3}","rd":5334},"updatecheck":{},"version":"7"},{"appid":"cmahhnpholdijhjokonmfdjbfmklppij","cohort":"1:wr3:","cohorthint":"Auto","cohortname":"Auto","enabled":true,"packages":{"package":[{"fp":"1.b4ddbdce4f8d5c080328aa34c19cb533f2eedec580b5d97dc14f74935e4756b7"}]},"ping":{"ping_freshness":"{383b96a3-be4b-41da-a87e-395cff13996b}","rd":5334},"updatecheck":{},"version":"1.0.6"},{"appid":"ggkkehgbnfjpeggfpleeakpidbkibbmn","cohort":"1:ut9:","cohorthint":"M80ToM99","cohortname":"M80ToM99","enabled":true,"packages":{"package":[{"fp":"1.74566c4cadcd80a841c10f0636c336a7bb1b94f31a05d7e45ae8b385bfbf53ff"}]},"ping":{"ping_freshness":"{57cec759-f038-4be1-84df-04d327ec13f1}","rd":5334},"updatecheck":{},"version":"2021.7.19.1143"},{"appid":"khaoiebndkojlmppeemjhbpbandiljpe","cohort":"1:cux:","cohorthint":"Auto","cohortname":"Auto","enabled":true,"packages":{"package":[{"fp":"1.ffd1d2d75a8183b0a1081bd03a7ce1d140fded7a9fb52cf3ae864cd4d408ceb4"}]},"ping":{"ping_freshness":"{fcb854bb-ed62-4493-8d65-2a84a3519030}","rd":5334},"updatecheck":{},"version":"43"},{"appid":"ojhpjlocmbogdgmfpkhlaaeamibhnphh","cohort":"1:w0x:","cohorthint":"Auto","cohortname":"Auto","enabled":true,"packages":{"package":[{"fp":"1.478aa915e78878e332a0b4bb4d2a6fb67ff1c7f7b62fe906f47095ba5ae112d0"}]},"ping":{"ping_freshness":"{8feda3ea-5662-40e0-848f-08ad27fbf45c}","rd":5334},"updatecheck":{},"version":"1"},{"appid":"jamhcnnkihinmdlkakkaopbjbbcngflc","cohort":"1:wvr:","cohorthint":"Auto","cohortname":"Auto","enabled":true,"packages":{"package":[{"fp":"1.a76cdce1c1cd7303a553d24d72b1d15dc2c3cc4f405ca649f4abf15dde311551"}]},"ping":{"ping_freshness":"{578597eb-9bdb-4b4f-9238-f7febb383588}","rd":5334},"updatecheck":{},"version":"94.0.4588.0"},{"appid":"llkgjffcdpffmhiakmfcdcblohccpfmo","cohort":"1::","enabled":true,"packages":{"package":[{"fp":"1.2731bdeddb1470bf2f7ae9c585e7315be52a8ce98b8af698ece8e500426e378a"}]},"ping":{"ping_freshness":"{9b0e876c-bb71-4a4b-885d-8acb3d49f6e3}","rd":5334},"updatecheck":{},"version":"1.0.0.8"},{"appid":"jflookgnkcckhobaglndicnbbgbonegd","cohort":"1:s7x:","cohorthint":"Auto","cohortname":"Auto","enabled":true,"packages":{"package":[{"fp":"1.c963f6d51cdf6ffd8352f0a7feeb3a5bde0cbfdcf1cdb7598ba8b58f06bf0207"}]},"ping":{"ping_freshness":"{c35a02a1-180e-49a6-81be-696e7e3389fa}","rd":5334},"updatecheck":{},"version":"2657"},{"appid":"oimompecagnajdejgnnjijobebaeigek","cohort":"1::","enabled":true,"packages":{"package":[{"fp":"1.0727b38159b38ffa3633510444ece15c86417962e8cac59c59002f13b50239ac"}]},"ping":{"ping_freshness":"{d0c41566-bfbd-4fc0-b00b-c1971246127a}","rd":5334},"updatecheck":{},"version":"4.10.2209.0"},{"appid":"hfnkpimlhhgieaddgfemjhofmfblmnib","cohort":"1:jcl:","cohorthint":"Auto","cohortname":"Auto","enabled":true,"packages":{"package":[{"fp":"1.73c7f62b7a6c69b828c90a2991f8ea4cd7ab786da56f8fabc9201d813c58a1bb"}]},"ping":{"ping_freshness":"{42c4620f-767b-4ee0-8ad5-52435db9b086}","rd":5334},"updatecheck":{},"version":"6755"},{"appid":"pdafiollngonhoadbmdoemagnfpdphbe","cohort":"1:vz3:","cohorthint":"Auto","cohortname":"Auto","enabled":true,"packages":{"package":[{"fp":"1.baeb7c645c7704139756b02bf2741430d94ea3835fb1de77fef1057d8c844655"}]},"ping":{"ping_freshness":"{72109255-7530-46e4-9711-d14babd4325f}","rd":5334},"updatecheck":{},"version":"2021.2.22.1142"},{"appid":"eeigpngbgcognadeebkilcpcaedhellh","cohort":"1:w59:","cohorthint":"Auto","cohortname":"Auto","enabled":true,"packages":{"package":[{"fp":"1.c64c9c1008f3ba5f6e18b3ca524bc98dcd8acfae0a2720a8f1f3ef0f8d643d05"}]},"ping":{"ping_freshness":"{62dc8309-18e6-4e3a-976e-b34634d34807}","rd":5334},"updatecheck":{},"version":"2020.11.2.164946"}],"arch":"x64","dedup":"cr","domainjoined":false,"hw":{"physmemory":12},"lang":"en-US","nacl_arch":"x86-64","os":{"arch":"x86_64","platform":"Windows","version":"10.0.18363.1679"},"prodversion":"90.0.4430.93","protocol":"3.1","requestid":"{b80b06f5-fca8-44f4-b201-8fe8c919ed99}","sessionid":"{bd445761-9316-46a3-b2b5-19150e833c14}","updaterversion":"90.0.4430.93"}}
--Response 
HTTP/1.1 200
content-security-policy: script-src 'report-sample' 'nonce-PpkY+RYrfaSQnI6I0ybpbg' 'unsafe-inline' 'strict-dynamic' https: http:;object-src 'none';base-uri 'self';report-uri https://csp.withgoogle.com/csp/clientupdate-aus/1
cache-control: no-cache, no-store, max-age=0, must-revalidate
pragma: no-cache
expires: Mon, 01 Jan 1990 00:00:00 GMT
date: Tue, 10 Aug 2021 10:25:22 GMT
x-cup-server-proof: 3046022100f6b929dc124bae0352023c7449ea91353ca3842fdbea865780d4a25a3e89860b0221008190a52892c56d2549e4f13018726504ce96a6fe572cf008bc4b5b5d327450a3:24ecf808c6308302588bf807ceea37b542fbc566fef6f0f3edacf6c85197c04c
etag: W/\"3046022100f6b929dc124bae0352023c7449ea91353ca3842fdbea865780d4a25a3e89860b0221008190a52892c56d2549e4f13018726504ce96a6fe572cf008bc4b5b5d327450a3:24ecf808c6308302588bf807ceea37b542fbc566fef6f0f3edacf6c85197c04c\"
content-type: application/json; charset=utf-8
x-daynum: 5335
x-daystart: 12322
content-encoding: gzip
x-content-type-options: nosniff
x-frame-options: SAMEORIGIN
x-xss-protection: 1; mode=block
content-length: 1872
server: GSE
alt-svc: h3=\":443\"; ma=2592000,h3-29=\":443\"; ma=2592000,h3-T051=\":443\"; ma=2592000,h3-Q050=\":443\"; ma=2592000,h3-Q046=\":443\"; ma=2592000,h3-Q043=\":443\"; ma=2592000,quic=\":443\"; ma=2592000; v=\"46,43\"
----

